<?xml version="1.0" encoding="utf-8"?>
<!-- Generator: Adobe Illustrator 19.0.0, SVG Export Plug-In . SVG Version: 6.00 Build 0)  -->
<svg version="1.1" id="Layer_1" xmlns="http://www.w3.org/2000/svg" xmlns:xlink="http://www.w3.org/1999/xlink" x="0px" y="0px"
	 viewBox="0 0 19.8 13.8" style="enable-background:new 0 0 19.8 13.8;" xml:space="preserve">
<style type="text/css">
	.st0{fill:#727B93;}
</style>
<g>
	<path class="st0" d="M15.4,13.8c-1.3,0-2.4-1.1-2.4-2.4S14.1,9,15.4,9s2.4,1.1,2.4,2.4S16.7,13.8,15.4,13.8z M15.4,9.8
		c-0.9,0-1.6,0.7-1.6,1.6s0.7,1.6,1.6,1.6s1.6-0.7,1.6-1.6S16.3,9.8,15.4,9.8z"/>
</g>
<g>
	<path class="st0" d="M4.4,13.8c-1.3,0-2.4-1.1-2.4-2.4S3.1,9,4.4,9s2.4,1.1,2.4,2.4S5.7,13.8,4.4,13.8z M4.4,9.8
		c-0.9,0-1.6,0.7-1.6,1.6S3.5,13,4.4,13S6,12.3,6,11.4S5.3,9.8,4.4,9.8z"/>
</g>
<g>
	<path class="st0" d="M19.4,11.8h-0.5c-0.2,0-0.4-0.2-0.4-0.4s0.2-0.4,0.4-0.4H19V6.3l-1.8-5.5H0.8V11h0.1c0.2,0,0.4,0.2,0.4,0.4
		s-0.2,0.4-0.4,0.4H0.4c-0.2,0-0.4-0.2-0.4-0.4v-11C0,0.2,0.2,0,0.4,0h17.1c0.2,0,0.3,0.1,0.4,0.3l1.9,5.8c0,0,0,0.1,0,0.1v5.2
		C19.8,11.6,19.6,11.8,19.4,11.8z"/>
</g>
<g>
	<path class="st0" d="M11.9,11.8h-4c-0.2,0-0.4-0.2-0.4-0.4S7.7,11,7.9,11h4c0.2,0,0.4,0.2,0.4,0.4S12.1,11.8,11.9,11.8z"/>
</g>
<g>
	<path class="st0" d="M16.9,6.8h-14c-0.2,0-0.4-0.2-0.4-0.4S2.7,6,2.9,6h14c0.2,0,0.4,0.2,0.4,0.4S17.1,6.8,16.9,6.8z"/>
</g>
</svg>
