<?xml version="1.0" encoding="utf-8"?>
<!-- Generator: Adobe Illustrator 19.0.0, SVG Export Plug-In . SVG Version: 6.00 Build 0)  -->
<svg version="1.1" id="Layer_1" xmlns="http://www.w3.org/2000/svg" xmlns:xlink="http://www.w3.org/1999/xlink" x="0px" y="0px"
	 viewBox="0 0 25.8 25.8" style="enable-background:new 0 0 25.8 25.8;" xml:space="preserve">
<style type="text/css">
	.st0{fill:#727B93;}
</style>
<g>
	<path class="st0" d="M22.7,24.1c-0.8,0-1.4-0.6-1.4-1.4c0-0.8,0.6-1.4,1.4-1.4c0.8,0,1.4,0.6,1.4,1.4
		C24.1,23.5,23.5,24.1,22.7,24.1z M22.7,22c-0.4,0-0.7,0.3-0.7,0.7s0.3,0.7,0.7,0.7s0.7-0.3,0.7-0.7S23,22,22.7,22z"/>
</g>
<g>
	<path class="st0" d="M11.5,24.1c-0.8,0-1.4-0.6-1.4-1.4c0-0.8,0.6-1.4,1.4-1.4c0.8,0,1.4,0.6,1.4,1.4
		C12.9,23.5,12.3,24.1,11.5,24.1z M11.5,22c-0.4,0-0.7,0.3-0.7,0.7s0.3,0.7,0.7,0.7s0.7-0.3,0.7-0.7S11.9,22,11.5,22z"/>
</g>
<g>
	<path class="st0" d="M17.1,24.1c-0.8,0-1.4-0.6-1.4-1.4c0-0.8,0.6-1.4,1.4-1.4s1.4,0.6,1.4,1.4C18.5,23.5,17.9,24.1,17.1,24.1z
		 M17.1,22c-0.4,0-0.7,0.3-0.7,0.7s0.3,0.7,0.7,0.7s0.7-0.3,0.7-0.7S17.5,22,17.1,22z"/>
</g>
<g>
	<path class="st0" d="M22.7,25.8H11.5c-1.7,0-3.2-1.4-3.2-3.2s1.4-3.2,3.2-3.2h11.1c1.7,0,3.2,1.4,3.2,3.2
		C25.8,24.4,24.4,25.8,22.7,25.8z M11.5,20.3c-1.3,0-2.4,1.1-2.4,2.4s1.1,2.4,2.4,2.4h11.1c1.3,0,2.4-1.1,2.4-2.4
		c0-1.3-1.1-2.4-2.4-2.4H11.5z"/>
</g>
<g>
	<path class="st0" d="M21.3,20.3h-8.4c-0.2,0-0.4-0.2-0.4-0.4v-2.1c0-0.2,0.2-0.4,0.4-0.4h8.4c0.2,0,0.4,0.2,0.4,0.4v2.1
		C21.7,20.1,21.5,20.3,21.3,20.3z M13.3,19.5h7.6v-1.3h-7.6V19.5z"/>
</g>
<g>
	<path class="st0" d="M25.5,18.2H11.5c-0.2,0-0.4-0.2-0.4-0.4V15c0-0.2,0.2-0.4,0.4-0.4h5.2v-8c0-0.2,0.2-0.4,0.4-0.4h7
		c0.2,0,0.3,0.1,0.4,0.3l1.4,11.1c0,0.1,0,0.2-0.1,0.3S25.6,18.2,25.5,18.2z M11.9,17.4H25L23.7,7h-6.3v8c0,0.2-0.2,0.4-0.4,0.4
		h-5.2V17.4z"/>
</g>
<g>
	<path class="st0" d="M17.1,15.4h-5.6c-0.1,0-0.2-0.1-0.3-0.2s-0.1-0.2-0.1-0.3L14,6.5c0.1-0.2,0.2-0.3,0.4-0.3h2.8
		c0.2,0,0.4,0.2,0.4,0.4V15C17.5,15.2,17.3,15.4,17.1,15.4z M12,14.6h4.7V7h-2.1L12,14.6z"/>
</g>
<g>
	<path class="st0" d="M2.5,4.9C1.1,4.9,0,3.8,0,2.5S1.1,0,2.5,0s2.5,1.1,2.5,2.5S3.8,4.9,2.5,4.9z M2.5,0.8c-0.9,0-1.7,0.8-1.7,1.7
		s0.8,1.7,1.7,1.7s1.7-0.8,1.7-1.7S3.4,0.8,2.5,0.8z"/>
</g>
<g>
	<path class="st0" d="M2.5,21.7c-1,0-1.8-0.8-1.8-1.8c0-0.8,0.6-1.6,1.4-1.7v-1.1c0-0.2,0.2-0.4,0.4-0.4s0.4,0.2,0.4,0.4v1.4
		c0,0.2-0.2,0.4-0.4,0.4c-0.6,0-1,0.5-1,1s0.5,1,1,1c0.6,0,1-0.5,1-1c0-0.2,0.2-0.4,0.4-0.4s0.4,0.2,0.4,0.4
		C4.2,20.9,3.4,21.7,2.5,21.7z"/>
</g>
<g>
	<path class="st0" d="M2.5,15.4c-0.2,0-0.4-0.2-0.4-0.4V4.6c0-0.2,0.2-0.4,0.4-0.4s0.4,0.2,0.4,0.4V15C2.8,15.2,2.7,15.4,2.5,15.4z"
		/>
</g>
<g>
	<path class="st0" d="M3.5,17.5H1.4c-0.2,0-0.4-0.2-0.4-0.4V15c0-0.2,0.2-0.4,0.4-0.4h2.1c0.2,0,0.4,0.2,0.4,0.4v2.1
		C3.9,17.3,3.7,17.5,3.5,17.5z M1.8,16.7h1.3v-1.3H1.8V16.7z"/>
</g>
<g>
	<path class="st0" d="M11.5,18.2c-0.1,0-0.2-0.1-0.3-0.2L2.5,4.7c-0.1-0.1-0.1-0.2,0-0.4c0-0.1,0.2-0.2,0.3-0.2C3.4,4,3.9,3.6,4.1,3
		c0-0.1,0.1-0.2,0.3-0.2c0.1,0,0.3,0,0.4,0.1l8.2,8.6c0.1,0.1,0.1,0.2,0.1,0.4l-1.1,3.3v2.7c0,0.2-0.1,0.3-0.3,0.4
		C11.6,18.2,11.6,18.2,11.5,18.2z M3.4,4.7l7.7,11.8V15c0,0,0-0.1,0-0.1l1-3.1l-7.7-8C4.3,4.2,3.9,4.5,3.4,4.7z"/>
</g>
</svg>
