<?xml version="1.0" encoding="utf-8"?>
<!-- Generator: Adobe Illustrator 19.0.0, SVG Export Plug-In . SVG Version: 6.00 Build 0)  -->
<svg version="1.1" id="Layer_1" xmlns="http://www.w3.org/2000/svg" xmlns:xlink="http://www.w3.org/1999/xlink" x="0px" y="0px"
	 viewBox="0 0 33.9 33.9" style="enable-background:new 0 0 33.9 33.9;" xml:space="preserve">
<g>
	<path d="M30.9,13.9h-2.4c-0.4,0-0.7-0.4-0.7-0.8V8.9c0-0.5,0.3-0.8,0.7-0.8h2.4c0.4,0,0.7,0.4,0.7,0.8V13
		C31.6,13.5,31.3,13.9,30.9,13.9z M28.8,12.9h1.8l0-3.8h-1.8L28.8,12.9z"/>
</g>
<g>
	<path d="M30.9,25.8h-2.4c-0.4,0-0.7-0.4-0.7-0.8v-4.1c0-0.5,0.3-0.8,0.7-0.8h2.4c0.4,0,0.7,0.4,0.7,0.8V25
		C31.6,25.4,31.3,25.8,30.9,25.8z M28.8,24.8h1.8l0-3.8h-1.8L28.8,24.8z"/>
</g>
<g>
	<path d="M28,30.2H5.9c-1.3,0-2.3-1-2.3-2.3V5.9c0-1.3,1-2.3,2.3-2.3H28c1.3,0,2.3,1,2.3,2.3v2.2c0,0.3-0.2,0.5-0.5,0.5
		s-0.5-0.2-0.5-0.5V5.9c0-0.7-0.6-1.3-1.3-1.3H5.9c-0.7,0-1.3,0.6-1.3,1.3V28c0,0.7,0.6,1.3,1.3,1.3H28c0.7,0,1.3-0.6,1.3-1.3v-2.5
		c0-0.3,0.2-0.5,0.5-0.5s0.5,0.2,0.5,0.5V28C30.2,29.2,29.2,30.2,28,30.2z"/>
</g>
<g>
	<path d="M29.7,20.8c-0.3,0-0.5-0.2-0.5-0.5v-6.4c0-0.3,0.2-0.5,0.5-0.5s0.5,0.2,0.5,0.5v6.4C30.2,20.6,30,20.8,29.7,20.8z"/>
</g>
<g>
	<path d="M16.9,24.8c-4.3,0-7.8-3.5-7.8-7.8s3.5-7.8,7.8-7.8s7.8,3.5,7.8,7.8S21.3,24.8,16.9,24.8z M16.9,10.1
		c-3.8,0-6.8,3.1-6.8,6.8c0,3.8,3.1,6.8,6.8,6.8s6.8-3.1,6.8-6.8C23.8,13.2,20.7,10.1,16.9,10.1z"/>
</g>
<g>
	<path d="M16.9,21.3c-2.4,0-4.4-2-4.4-4.4c0-2.4,2-4.4,4.4-4.4s4.4,2,4.4,4.4C21.3,19.4,19.4,21.3,16.9,21.3z M16.9,13.6
		c-1.9,0-3.4,1.5-3.4,3.4c0,1.9,1.5,3.4,3.4,3.4s3.4-1.5,3.4-3.4C20.3,15.1,18.8,13.6,16.9,13.6z"/>
</g>
<g>
	<path d="M29.1,33.9H4.7c-2.6,0-4.7-2.1-4.7-4.7V4.7C0,2.1,2.1,0,4.7,0h24.4c2.6,0,4.7,2.1,4.7,4.7v24.4
		C33.9,31.8,31.8,33.9,29.1,33.9z M4.7,1C2.7,1,1,2.7,1,4.7v24.4c0,2.1,1.7,3.7,3.7,3.7h24.4c2.1,0,3.7-1.7,3.7-3.7V4.7
		c0-2.1-1.7-3.7-3.7-3.7H4.7z"/>
</g>
<g>
	<path d="M16.9,11.9c-0.3,0-0.5-0.2-0.5-0.5V9.6c0-0.3,0.2-0.5,0.5-0.5s0.5,0.2,0.5,0.5v1.8C17.4,11.6,17.2,11.9,16.9,11.9z"/>
</g>
<g>
	<path d="M13,13.5c-0.1,0-0.3,0-0.4-0.1l-1.2-1.2c-0.2-0.2-0.2-0.5,0-0.7s0.5-0.2,0.7,0l1.2,1.2c0.2,0.2,0.2,0.5,0,0.7
		C13.2,13.4,13.1,13.5,13,13.5z"/>
</g>
<g>
	<path d="M11.4,17.4H9.6c-0.3,0-0.5-0.2-0.5-0.5s0.2-0.5,0.5-0.5h1.8c0.3,0,0.5,0.2,0.5,0.5S11.6,17.4,11.4,17.4z"/>
</g>
<g>
	<path d="M11.7,22.6c-0.1,0-0.3,0-0.4-0.1c-0.2-0.2-0.2-0.5,0-0.7l1.2-1.2c0.2-0.2,0.5-0.2,0.7,0s0.2,0.5,0,0.7l-1.2,1.2
		C12,22.6,11.9,22.6,11.7,22.6z"/>
</g>
<g>
	<path d="M16.9,24.8c-0.3,0-0.5-0.2-0.5-0.5v-1.8c0-0.3,0.2-0.5,0.5-0.5s0.5,0.2,0.5,0.5v1.8C17.4,24.6,17.2,24.8,16.9,24.8z"/>
</g>
<g>
	<path d="M22.1,22.6c-0.1,0-0.3,0-0.4-0.1l-1.2-1.2c-0.2-0.2-0.2-0.5,0-0.7s0.5-0.2,0.7,0l1.2,1.2c0.2,0.2,0.2,0.5,0,0.7
		C22.4,22.6,22.3,22.6,22.1,22.6z"/>
</g>
<g>
	<path d="M24.3,17.4h-1.8c-0.3,0-0.5-0.2-0.5-0.5s0.2-0.5,0.5-0.5h1.8c0.3,0,0.5,0.2,0.5,0.5S24.6,17.4,24.3,17.4z"/>
</g>
<g>
	<path d="M20.9,13.5c-0.1,0-0.3,0-0.4-0.1c-0.2-0.2-0.2-0.5,0-0.7l1.2-1.2c0.2-0.2,0.5-0.2,0.7,0s0.2,0.5,0,0.7l-1.2,1.2
		C21.1,13.4,21,13.5,20.9,13.5z"/>
</g>
</svg>
