<?xml version="1.0" encoding="utf-8"?>
<!-- Generator: Adobe Illustrator 19.0.0, SVG Export Plug-In . SVG Version: 6.00 Build 0)  -->
<svg version="1.1" id="Layer_1" xmlns="http://www.w3.org/2000/svg" xmlns:xlink="http://www.w3.org/1999/xlink" x="0px" y="0px"
	 viewBox="0 0 18.8 16.8" style="enable-background:new 0 0 18.8 16.8;" xml:space="preserve">
<style type="text/css">
	.st0{fill:#727B93;}
</style>
<g>
	<path class="st0" d="M17.3,14.8H1.5c-0.8,0-1.5-0.7-1.5-1.5V1.5C0,0.7,0.7,0,1.5,0h15.8c0.8,0,1.5,0.7,1.5,1.5v11.8
		C18.8,14.1,18.1,14.8,17.3,14.8z M1.5,0.8c-0.4,0-0.8,0.3-0.8,0.8v11.8c0,0.4,0.3,0.8,0.8,0.8h15.8c0.4,0,0.8-0.3,0.8-0.8V1.5
		c0-0.4-0.3-0.8-0.8-0.8H1.5z"/>
</g>
<g>
	<path class="st0" d="M11.9,16.8h-5c-0.2,0-0.4-0.2-0.4-0.4S6.7,16,6.9,16h5c0.2,0,0.4,0.2,0.4,0.4S12.1,16.8,11.9,16.8z"/>
</g>
<g>
	<path class="st0" d="M17.9,11.8h-17c-0.2,0-0.4-0.2-0.4-0.4S0.7,11,0.9,11h17c0.2,0,0.4,0.2,0.4,0.4S18.1,11.8,17.9,11.8z"/>
</g>
</svg>
