<?xml version="1.0" encoding="utf-8"?>
<!-- Generator: Adobe Illustrator 19.0.0, SVG Export Plug-In . SVG Version: 6.00 Build 0)  -->
<svg version="1.1" id="Layer_1" xmlns="http://www.w3.org/2000/svg" xmlns:xlink="http://www.w3.org/1999/xlink" x="0px" y="0px"
	 viewBox="0 0 27.9 36.1" style="enable-background:new 0 0 27.9 36.1;" xml:space="preserve">
<style type="text/css">
	.st0{fill:#4E5261;}
	.st1{fill:#FFFFFF;}
</style>
<g>
	<g>
		<path class="st0" d="M25.9,36.1H9.1c-1.1,0-2-0.9-2-2v-8.7c0-1.1,0.9-2,2-2h16.8c1.1,0,2,0.9,2,2v8.7C27.9,35.2,27,36.1,25.9,36.1
			z"/>
	</g>
	<g>
		<path class="st0" d="M13.3,32.3H1.7c-0.9,0-1.7-0.8-1.7-1.7v-29C0,0.8,0.7,0,1.7,0h13c0.3,0,0.5,0.2,0.5,0.5S14.9,1,14.6,1h-13
			C1.3,1,1,1.3,1,1.7v29c0,0.4,0.3,0.7,0.7,0.7h11.6c0.3,0,0.5,0.2,0.5,0.5C13.8,32.1,13.6,32.3,13.3,32.3z"/>
	</g>
	<g>
		<path class="st0" d="M22.3,24.1c-0.3,0-0.5-0.2-0.5-0.5V8.2c0-0.3,0.2-0.5,0.5-0.5s0.5,0.2,0.5,0.5v15.5
			C22.8,23.9,22.6,24.1,22.3,24.1z"/>
	</g>
	<g>
		<path class="st0" d="M22.3,8.7h-6.5c-0.9,0-1.7-0.8-1.7-1.7V0.5c0-0.2,0.1-0.4,0.3-0.5C14.6,0,14.8,0,15,0.1l7.7,7.7
			c0.1,0.1,0.2,0.4,0.1,0.5C22.7,8.5,22.5,8.7,22.3,8.7z M15.1,1.7V7c0,0.4,0.3,0.7,0.7,0.7h5.3L15.1,1.7z"/>
	</g>
	<g>
		<path class="st0" d="M11.4,7.3H5.2c-0.3,0-0.5-0.2-0.5-0.5s0.2-0.5,0.5-0.5h6.2c0.3,0,0.5,0.2,0.5,0.5S11.7,7.3,11.4,7.3z"/>
	</g>
	<g>
		<path class="st0" d="M17.6,13.2H5.2c-0.3,0-0.5-0.2-0.5-0.5s0.2-0.5,0.5-0.5h12.4c0.3,0,0.5,0.2,0.5,0.5S17.9,13.2,17.6,13.2z"/>
	</g>
	<g>
		<path class="st0" d="M17.6,16.6H5.2c-0.3,0-0.5-0.2-0.5-0.5c0-0.3,0.2-0.5,0.5-0.5h12.4c0.3,0,0.5,0.2,0.5,0.5
			C18.1,16.4,17.9,16.6,17.6,16.6z"/>
	</g>
	<g>
		<path class="st0" d="M17.6,20H5.2c-0.3,0-0.5-0.2-0.5-0.5S4.9,19,5.2,19h12.4c0.3,0,0.5,0.2,0.5,0.5S17.9,20,17.6,20z"/>
	</g>
	<g>
		<g>
			<path class="st1" d="M11.5,29.4c0-0.5,0-0.9,0-1.3h0.6l0,0.7h0c0.3-0.5,0.7-0.8,1.4-0.8c0.9,0,1.6,0.8,1.6,2
				c0,1.4-0.8,2.1-1.8,2.1c-0.5,0-1-0.2-1.2-0.6h0v2.1h-0.7V29.4z M12.2,30.4c0,0.1,0,0.2,0,0.3c0.1,0.5,0.6,0.8,1.1,0.8
				c0.7,0,1.2-0.6,1.2-1.5c0-0.8-0.4-1.4-1.2-1.4c-0.5,0-0.9,0.3-1.1,0.9c0,0.1,0,0.2,0,0.3V30.4z"/>
		</g>
		<g>
			<path class="st1" d="M16.1,29.2c0-0.4,0-0.7,0-1h0.6l0,0.6h0c0.2-0.4,0.6-0.7,1.3-0.7c0.5,0,1.4,0.3,1.4,1.6V32h-0.7v-2.2
				c0-0.6-0.2-1.1-0.9-1.1c-0.5,0-0.8,0.3-0.9,0.7c0,0.1,0,0.2,0,0.3V32h-0.7V29.2z"/>
		</g>
		<g>
			<path class="st1" d="M23.7,28.1c0,0.3,0,0.6,0,1.1v2.2c0,0.9-0.2,1.4-0.6,1.8c-0.4,0.4-1,0.5-1.5,0.5c-0.5,0-1-0.1-1.3-0.3
				l0.2-0.5c0.3,0.2,0.7,0.3,1.2,0.3c0.7,0,1.3-0.4,1.3-1.4v-0.4h0c-0.2,0.4-0.7,0.6-1.3,0.6c-1,0-1.7-0.8-1.7-1.9
				c0-1.3,0.9-2.1,1.8-2.1c0.7,0,1.1,0.4,1.3,0.7h0l0-0.6H23.7z M22.9,29.6c0-0.1,0-0.2,0-0.3c-0.1-0.4-0.5-0.7-1-0.7
				c-0.7,0-1.2,0.6-1.2,1.5c0,0.8,0.4,1.4,1.2,1.4c0.4,0,0.9-0.3,1-0.7c0-0.1,0.1-0.3,0.1-0.4V29.6z"/>
		</g>
	</g>
	<g>
	</g>
</g>
</svg>
