<?xml version="1.0" encoding="utf-8"?>
<!-- Generator: Adobe Illustrator 19.0.0, SVG Export Plug-In . SVG Version: 6.00 Build 0)  -->
<svg version="1.1" id="Layer_1" xmlns="http://www.w3.org/2000/svg" xmlns:xlink="http://www.w3.org/1999/xlink" x="0px" y="0px"
	 viewBox="0 0 19.4 17.3" style="enable-background:new 0 0 19.4 17.3;" xml:space="preserve">
<style type="text/css">
	.st0{fill:#002263;}
</style>
<g>
	<path class="st0" d="M1,8.6c-0.1,0-0.2,0-0.3-0.1C0.6,8.3,0.6,8.1,0.8,8l9-7.9C10,0,10.2,0,10.3,0.1l3.8,3.1V1.9
		c0-0.2,0.2-0.4,0.4-0.4h2c0.2,0,0.4,0.2,0.4,0.4v3.4c0,0.1,0,0.1,0,0.2L19.3,8c0.1,0.2,0.1,0.4,0,0.5c-0.2,0.1-0.4,0.1-0.5,0
		L16,5.6c-0.1-0.1-0.1-0.2-0.1-0.3C15.9,5.1,16,5,16.1,5V2.3h-1.3v1.7c0,0.1-0.1,0.2-0.2,0.3c-0.1,0.1-0.2,0.1-0.4,0l-0.2-0.1
		c0,0-0.1,0-0.1-0.1l-4-3.3L1.3,8.5C1.2,8.6,1.1,8.6,1,8.6z"/>
</g>
<g>
	<path class="st0" d="M16.5,17.3h-4c-0.2,0-0.4-0.2-0.4-0.4v-4.6H7.9v4.6c0,0.2-0.2,0.4-0.4,0.4h-4c-0.2,0-0.4-0.2-0.4-0.4V9.6
		c0-0.2,0.2-0.4,0.4-0.4s0.4,0.2,0.4,0.4v6.9h3.3v-4.6c0-0.2,0.2-0.4,0.4-0.4h5c0.2,0,0.4,0.2,0.4,0.4v4.6h3.3V9.6
		c0-0.2,0.2-0.4,0.4-0.4s0.4,0.2,0.4,0.4v7.2C16.9,17.1,16.7,17.3,16.5,17.3z"/>
</g>
</svg>
