<?xml version="1.0" encoding="utf-8"?>
<!-- Generator: Adobe Illustrator 19.0.0, SVG Export Plug-In . SVG Version: 6.00 Build 0)  -->
<svg version="1.1" id="Layer_1" xmlns="http://www.w3.org/2000/svg" xmlns:xlink="http://www.w3.org/1999/xlink" x="0px" y="0px"
	 viewBox="0 0 19.3 18.7" style="enable-background:new 0 0 19.3 18.7;" xml:space="preserve">
<style type="text/css">
	.st0{fill:#45C8DC;}
</style>
<g>
	<path class="st0" d="M18,16.1c-0.1,0-0.2,0-0.3,0c0,0,0,0,0,0c0,0,0,0,0,0c-0.1-0.7-0.5-1.1-1.2-1.1c-2.2,0-4.4,0-6.6,0
		c-0.7,0-1.1,0.3-1.2,1c0,0,0,0,0,0.1c0,0,0,0,0,0c-0.1,0-0.2,0-0.3,0c0,0,0,0-0.1,0l0,0c-0.3,0-0.6,0.1-0.9,0.4
		c-0.4,0.4-0.5,0.9-0.2,1.5c0.2,0.5,0.6,0.8,1.2,0.8h1.7c1,0,2,0,3.1,0c0.6,0,1.2,0,1.8,0h0.7c0.2,0,0.4,0,0.6,0c0.2,0,0.4,0,0.7,0
		c0.4,0,0.7,0,1,0c0.8,0,1.3-0.6,1.3-1.4C19.3,16.6,18.7,16.1,18,16.1z"/>
	<path class="st0" d="M11.5,4.6L11.5,4.6c0.1-0.1,0.1-0.2,0.2-0.3c0,0,0-0.1,0.1-0.1c0.2-0.3,0.1-0.5-0.1-0.7
		c-0.5-0.3-1-0.6-1.5-0.9c-0.5-0.3-1-0.6-1.4-0.9C8.5,1.4,8.3,1.5,8.1,1.8c0,0,0,0.1-0.1,0.1C7.9,2,7.9,2.1,7.8,2.2l0,0L5.5,5.8l0,0
		C5.5,5.8,5.4,5.9,5.4,6C5.3,6.1,5.3,6.2,5.2,6.2C5.1,6.5,5.1,6.7,5.4,6.9C5.5,6.9,5.5,7,5.5,7.1c0,0.2,0.1,0.4,0.1,0.7
		c0,0.1,0,0.2,0,0.2C5.4,8.2,5.2,8.4,5.1,8.5L4.2,9.7v0c-1.1,1.5-2.1,3.1-3.1,4.8l0,0l-1,1.8l0,0c-0.1,0.1-0.1,0.2-0.2,0.4
		C0,16.8,0,16.9,0.1,17.1c0.2,0.2,0.3,0.3,0.5,0.4c0.2,0.1,0.4,0.2,0.6,0.3c0.2,0.1,0.4,0,0.5-0.2c0.1-0.1,0.2-0.2,0.3-0.3l0,0
		l1.2-1.6l0,0c1.1-1.5,2.1-3.1,3-4.8h0l0.7-1.2C7,9.5,7.2,9.3,7.3,9.1C7.3,9,7.4,9,7.4,9c0.2-0.1,0.4-0.1,0.6-0.2c0.1,0,0.2,0,0.2,0
		C8.6,8.9,8.8,8.9,9,8.6C9,8.5,9.1,8.5,9.1,8.4c0-0.1,0.1-0.2,0.1-0.2l0,0L11.5,4.6z"/>
	<g>
		<g>
			<path class="st0" d="M3.2,6L3.2,6C2.7,5.6,2.5,4.9,2.9,4.3l2.4-3.7C5.6,0,6.4-0.2,6.9,0.2l0,0c0.6,0.4,0.7,1.1,0.4,1.7L4.9,5.6
				C4.6,6.2,3.8,6.3,3.2,6z"/>
			<path class="st0" d="M10.1,10.3L10.1,10.3C9.5,10,9.3,9.2,9.7,8.6l2.4-3.7c0.4-0.6,1.1-0.7,1.7-0.4l0,0c0.6,0.4,0.7,1.1,0.4,1.7
				l-2.4,3.7C11.4,10.5,10.6,10.7,10.1,10.3z"/>
		</g>
	</g>
</g>
</svg>
