<?xml version="1.0" encoding="utf-8"?>
<!-- Generator: Adobe Illustrator 19.0.0, SVG Export Plug-In . SVG Version: 6.00 Build 0)  -->
<svg version="1.1" id="Ebene_1" xmlns="http://www.w3.org/2000/svg" xmlns:xlink="http://www.w3.org/1999/xlink" x="0px" y="0px"
	 viewBox="0 0 12.3 12.1" style="enable-background:new 0 0 12.3 12.1;" xml:space="preserve">
<style type="text/css">
	.st0{fill:#505050;}
</style>
<path class="st0" d="M2,7c0.1,0.4,0.3,0.8,0.5,1.2L1.6,9.6c0,0,0.1,0.2,0.4,0.5c0.3,0.3,0.5,0.4,0.5,0.4l1.4-0.9
	c0.4,0.2,0.7,0.4,1.1,0.5l0.4,1.6c0,0,0.2,0.1,0.6,0.1c0.4,0,0.6-0.1,0.6-0.1L7.1,10c0.4-0.1,0.8-0.3,1.1-0.5l1.4,0.9
	c0,0,0.2-0.1,0.5-0.4c0.3-0.3,0.4-0.5,0.4-0.5L9.6,8C9.8,7.7,9.9,7.3,10,6.9l1.7-0.4c0,0,0.1-0.2,0.1-0.7c0-0.4-0.1-0.7-0.1-0.7
	L10,4.8C9.9,4.4,9.7,4,9.5,3.7l0.9-1.5c0,0-0.1-0.2-0.4-0.5C9.8,1.4,9.5,1.3,9.5,1.3L8.1,2.2C7.8,2,7.4,1.9,7,1.8L6.6,0.1
	C6.6,0.1,6.4,0,6,0C5.6,0,5.4,0.1,5.4,0.1L5,1.8C4.6,1.9,4.2,2,3.9,2.3L2.5,1.4c0,0-0.2,0.1-0.5,0.4C1.7,2.1,1.6,2.3,1.6,2.3
	l0.9,1.4C2.3,4.1,2.1,4.5,2,4.9L0.4,5.3c0,0-0.1,0.2-0.1,0.7c0,0.4,0.1,0.7,0.1,0.7L2,7z M4.2,5.9c0-1,0.8-1.8,1.8-1.8
	c1,0,1.8,0.8,1.8,1.8c0,1-0.8,1.8-1.8,1.8C5,7.7,4.2,6.9,4.2,5.9z"/>
</svg>
